{
  "version": 1,
  "disable_existing_loggers": false,
  "formatters": {
    "standard": {
      "format": "%(asctime)s - %(name)s - %(levelname)s - %(lineno)d - %(message)s"
    }
  },
  "handlers": {
    "default": {
      "class": "logging.StreamHandler",
      "level": "DEBUG",
      "formatter": "standard",
      "stream": "ext://sys.stdout"
    }
  },
  "loggers": {
    "root": {
      "handlers": [
        "default"
      ],
      "level": "INFO",
      "propagate": true
    }
  }
}